{
	"enable":"1",
	"horizontal_sharing_shape":"round",
	"horizontal_sharing_size":"35", 
	"horizontal_sharing_width":"70",
	"horizontal_sharing_height":"35",
	"horizontal_bor der_radius":"",
	"horizontal_font_color_default":"",
	"horizontal_sharing_replace_co lor":"#fff",
	"horizontal_font_color_hover":"",
	"horizontal_sharing_replace_color_h over":"#fff",
	"horizontal_bg_color_default":"",
	"horizontal_bg_color_hover":"",
	"ho rizontal_border_width_default":"",
	"horizontal_border_color_default":"",
	"horizont al_border_width_hover":"",
	"horizontal_border_color_hover":"",
	"vertical_sharing_s hape":"square",
	"vertical_sharing_size":"40",
	"vertical_sharing_width":"80",
	"verti cal_sharing_height":"40",
	"vertical_border_radius":"",
	"vertical_font_color_defaul t":"",
	"vertical_sharing_replace_color":"#fff",
	"vertical_font_color_hover":"",
	"ve rtical_sharing_replace_color_hover":"#fff",
	"vertical_bg_color_default":"",
	"verti cal_bg_color_hover":"",
	"vertical_border_width_default":"",
	"vertical_border_color _default":"",
	"vertical_border_width_hover":"",
	"vertical_border_color_hover":"",
	" hor_enable":"1",
	"horizontal_target_url":"default",
	"horizontal_target_url_custom" :"",
	"title":"Spread the love",
	"instagram_username":"",
	"comment_container_id":"re spond",
	"horizontal_re_providers":["facebook","twitter","google_plus","linkedin", "pinterest","instagram"],
	"hor_sharing_alignment":"left",
	"post":"1",
	"phd-openings ":"1",
	"cooperation-calls":"1",
	"tweet_count_service":"opensharecount",
	"vertical_t arget_url":"default",
	"vertical_target_url_custom":"",
	"vertical_instagram_usernam e":"",
	"vertical_comment_container_id":"respond",
	"vertical_re_providers":["facebo ok","twitter","google_plus","linkedin","pinterest","reddit","delicious","mix","w hatsapp"],
	"vertical_bg":"",
	"alignment":"left",
	"left_offset":"-10",
	"right_offset" :"-10",
	"top_offset":"100",
	"vertical_home":"1",
	"vertical_post":"1",
	"vertical_page ":"1",
	"vertical_tweet_count_service":"opensharecount",
	"vertical_more":"1",
	"hide_ mobile_sharing":"1",
	"vertical_screen_width":"783",
	"bottom_mobile_sharing":"1",
	"h orizontal_screen_width":"783",
	"bottom_sharing_position":"0",
	"bottom_sharing_alig nment":"left",
	"bottom_sharing_position_radio":"responsive",
	"bitly_username":"",
	" bitly_key":"",
	"share_count_cache_refresh_count":"10",
	"share_count_cache_refresh_ unit":"minutes",
	"language":"en_US",
	"twitter_username":"",
	"buffer_username":""
}